{
    "development": {
        "PORT": 3002,
        "MONGODB_URI": "mongodb://localhost:27017/PGV3",
        "JWT_SECRET": "SIMS123456",
        "JWT_EXP": "8h"
    },
    "production": {
        "PORT": 80,
        "MONGODB_URI": "mongodb://xxxxx/DB_Name",
        "JWT_SECRET": "SIMS123456",
        "JWT_EXP": "10m"
    }
}